…
再按分类变量status分类

german %>% 
  select(status,savings,amount, age, credit_risk) %>% 
  group_by(status) 

## # A tibble: 1,000 x 5
## # Groups:   status [4]
##    status                          savings              amount   age credit_risk
##    <fct>                           <fct>                 <int> <int> <fct>      
##  1 no checking account             unknown/no savings …   1049    21 good       
##  2 no checking account             unknown/no savings …   2799    36 good       
##  3 ... < 0 DM                      ... <  100 DM           841    23 good       
##  4 no checking account             unknown/no savings …   2122    39 good       
##  5 no checking account             unknown/no savings …   2171    38 good       
##  6 no checking account             unknown/no savings …   2241    48 good       
##  7 no checking account             unknown/no savings …   3398    39 good       
##  8 no checking account             unknown/no savings …   1361    40 good       
##  9 ... >= 200 DM / salary for at … unknown/no savings …   1098    65 good       
## 10 ... < 0 DM                      100 <= ... <  500 DM   3758    23 good       
## # … with 990 more rows

并计算每一类的个数。

german %>% 
  select(status,savings,amount, age, credit_risk) %>% 
  group_by(status)

## # A tibble: 1,000 x 5
## # Groups:   status [4]
##    status                          savings              amount   age credit_risk
##    <fct>                           <fct>                 <int> <int> <fct>      
##  1 no checking account             unknown/no savings …   1049    21 good       
##  2 no checking account             unknown/no savings …   2799    36 good       
##  3 ... < 0 DM                      ... <  100 DM           841    23 good       
##  4 no checking account             unknown/no savings …   2122    39 good       
##  5 no checking account             unknown/no savings …   2171    38 good       
##  6 no checking account             unknown/no savings …   2241    48 good       
##  7 no checking account             unknown/no savings …   3398    39 good       
##  8 no checking account             unknown/no savings …   1361    40 good       
##  9 ... >= 200 DM / salary for at … unknown/no savings …   1098    65 good       
## 10 ... < 0 DM                      100 <= ... <  500 DM   3758    23 good       
## # … with 990 more rows
…
